<head>
   <wp id="0" ap="7" ah="0" av="0" />
   <wp id="1" ap="7" ah="50" av="97" />
   <ws id="0" ju="2" pd="0" sd="0" />
   <ws id="1" ju="2" pd="0" sd="0" />
   <pen id="0" sz="100" fc="#000000" fo="0" bo="0" />
   <pen id="1" sz="0" fc="#A0AAB4" fo="0" bo="0" />
   <pen id="2" sz="170" fc="#EEE6FA" fo="254" bc="#000000" bo="127" et="4" ec="#000000" />
   <pen id="3" sz="73" fc="#FEFEFE" fo="254" bc="#000000" bo="127" et="4" ec="#000000" />
   <pen id="4" sz="73" fc="#FEFEFE" fo="254" bo="0" et="1" ec="#000000" />
   <pen id="5" sz="170" fc="#EEE6FA" fo="254" bo="0" />
   <pen id="6" sz="73" fc="#FEFEFE" fo="254" bo="0" et="2" ec="#000000" />
   <pen id="7" sz="73" fc="#FEFEFE" fo="254" bo="0" et="3" ec="#000000" />
</head>